{

"GxObject":{"ObjectType":"BusinessComponent","Name":"ContratoAgendaPag","idConnectivitySupport":"idInherit","Structure":{"Levels":[{"Name":"Contratoagendapag","ParentLevel":"","LevelName":"ContratoAgendaPag","Description":"Agenda de Pagamento","Attributes":[{"Name":"CtrID","Caption":"Nº Contrato","default":"0","IsKey":"true","ReadOnly":"false","AttributeType":"int","Description":"Nº Contrato","Length":"9","Decimals":"0","Signed":"false","AllowDBNulls":"false","Domain":"ID","InternalName":"CtrID","InputPicture":"ZZZZZZZZ9","Type":"xs:int"},{"Name":"CtrFDescricaoID","Caption":"Contrato","default":"","IsKey":"false","ReadOnly":"true","AttributeType":"svchar","Description":"Contrato","Length":"100","Decimals":"0","Signed":"false","AllowDBNulls":"true","Domain":"Descricao","InternalName":"CtrFDescricaoID","InputPicture":"@!","Type":"xs:string"},{"Name":"CtrQtdePrazo","Caption":"Prazo","default":"0","IsKey":"false","ReadOnly":"true","AttributeType":"int","Description":"Prazo","Length":"6","Decimals":"1","Signed":"false","AllowDBNulls":"true","Domain":"QtdeD1","InternalName":"CtrQtdePrazo","InputPicture":"ZZZZ9.9","Type":"xs:decimal"},{"Name":"CtrVigenciaIni","Caption":"Início Vigência","default":"","IsKey":"false","ReadOnly":"true","AttributeType":"date","Description":"Início Vigência","Length":"8","Decimals":"0","Signed":"false","AllowDBNulls":"true","Domain":"Data","InternalName":"CtrVigenciaIni","InputPicture":"99/99/9999","Type":"xs:string"},{"Name":"CAgID","Caption":"Item","default":"0","IsKey":"true","ReadOnly":"false","AttributeType":"int","Description":"Item","Length":"9","Decimals":"0","Signed":"false","AllowDBNulls":"false","Domain":"ID","InternalName":"CAgID","InputPicture":"ZZZZZZZZ9","Type":"xs:int"},{"Name":"CAgFID","Caption":"Nº AP","default":"","IsKey":"false","ReadOnly":"true","AttributeType":"svchar","Description":"Nº AP","Length":"15","Decimals":"0","Signed":"false","AllowDBNulls":"true","InternalName":"CAgFID","InputPicture":"","Type":"xs:string"},{"Name":"CAgTLcID","Caption":"Tipo Lanç.","default":"0","SuperType":"TLcID","SubtypeGroup":"ContratoAgendaPag_TipoLancamento","IsKey":"false","ReadOnly":"false","AttributeType":"int","Description":"Tipo Lanç.","Length":"9","Decimals":"0","Signed":"false","AllowDBNulls":"false","Domain":"ID","InternalName":"CAgTLcID","InputPicture":"ZZZZZZZZ9","Type":"xs:int"},{"Name":"CAgTLcDescricao","Caption":"Tipo Lanç.","default":"","IsKey":"false","ReadOnly":"true","AttributeType":"svchar","Description":"Tipo Lanç.","Length":"100","Decimals":"0","Signed":"false","AllowDBNulls":"true","Domain":"Descricao","InternalName":"CAgTLcDescricao","InputPicture":"@!","Type":"xs:string"},{"Name":"CAgTLcCategoria","Caption":"Categoria","default":"","IsKey":"false","ReadOnly":"true","AttributeType":"char","Description":"Categoria","Length":"1","Decimals":"0","Signed":"false","AllowDBNulls":"true","Domain":"CategoriaLancamento","InternalName":"CAgTLcCategoria","InputPicture":"","Type":"xs:string"},{"Name":"CAgDescricao","Caption":"Descrição","default":"","IsKey":"false","ReadOnly":"false","AttributeType":"svchar","Description":"Descrição","Length":"100","Decimals":"0","Signed":"false","AllowDBNulls":"false","Domain":"DescricaoSuggest","InternalName":"CAgDescricao","DescriptionAtt":"true","InputPicture":"@!","Type":"xs:string"},{"Name":"CAgValor","Caption":"Valor Total","default":"0","IsKey":"false","ReadOnly":"false","AttributeType":"int","Description":"Valor Total","Length":"14","Decimals":"2","Signed":"true","AllowDBNulls":"false","Domain":"Valor","InternalName":"CAgValor","InputPicture":"ZZZ,ZZZ,ZZZ,ZZ9.99","Type":"xs:decimal"},{"Name":"CAgDataBaseValor","Caption":"Data Base","defaultAttribute":"CtrVigenciaIni","IsKey":"false","ReadOnly":"false","AttributeType":"date","Description":"Data Base","Length":"8","Decimals":"0","Signed":"false","AllowDBNulls":"false","Domain":"Data","InternalName":"CAgDataBaseValor","InputPicture":"99/99/9999","Type":"xs:string"},{"Name":"CAgData1Vcto","Caption":"1º Vcto","default":"","IsKey":"false","ReadOnly":"false","AttributeType":"date","Description":"1º Vcto","Length":"8","Decimals":"0","Signed":"false","AllowDBNulls":"false","Domain":"Data","InternalName":"CAgData1Vcto","InputPicture":"99/99/9999","Type":"xs:string"},{"Name":"CAgRgcID","Caption":"Vcto/Correç.","default":"0","SuperType":"RgcID","SubtypeGroup":"ContratoAgendaPag_RegraCorrecao","IsKey":"false","ReadOnly":"false","AttributeType":"int","Description":"Vcto/Correç.","Length":"9","Decimals":"0","Signed":"false","AllowDBNulls":"true","Domain":"ID","InternalName":"CAgRgcID","InputPicture":"ZZZZZZZZ9","Type":"xs:int"},{"Name":"CAgRgcDescricao","Caption":"Vcto/Correç.","default":"","IsKey":"false","ReadOnly":"true","AttributeType":"svchar","Description":"Vcto/Correç.","Length":"100","Decimals":"0","Signed":"false","AllowDBNulls":"true","Domain":"Descricao","InternalName":"CAgRgcDescricao","InputPicture":"@!","Type":"xs:string"},{"Name":"CAgLcmManual","Caption":"Manual","default":"","IsKey":"false","ReadOnly":"false","AttributeType":"boolean","Description":"Manual","Length":"4","Decimals":"0","Signed":"false","AllowDBNulls":"false","Domain":"Logico","InternalName":"CAgLcmManual","InputPicture":"","Type":"xs:string"},{"Name":"CAgDiaVcto","Caption":"Dia Vcto","default":"0","IsKey":"false","ReadOnly":"false","AttributeType":"int","Description":"Dia Vcto","Length":"2","Decimals":"0","Signed":"false","AllowDBNulls":"false","Domain":"Dia","InternalName":"CAgDiaVcto","InputPicture":"Z9","Type":"xs:int"},{"Name":"CAgQtdeVcto","Caption":"Prazo","default":"0","IsKey":"false","ReadOnly":"false","AttributeType":"int","Description":"Prazo","Length":"6","Decimals":"0","Signed":"false","AllowDBNulls":"false","Domain":"Qtde","InternalName":"CAgQtdeVcto","InputPicture":"ZZZZZ9","Type":"xs:int"},{"Name":"RgcVctoPeriodicidade","Caption":"Vencimento","default":"","IsKey":"false","ReadOnly":"true","AttributeType":"char","Description":"Vencimento","Length":"1","Decimals":"0","Signed":"false","AllowDBNulls":"true","Domain":"TipoPeriodicidadeVcto","InternalName":"RgcVctoPeriodicidade","InputPicture":"","Type":"xs:string"},{"Name":"CAgFTipoQtdeVcto","Caption":"Prazo","default":"","IsKey":"false","ReadOnly":"true","AttributeType":"svchar","Description":"Prazo","Length":"40","Decimals":"0","Signed":"false","AllowDBNulls":"true","Domain":"TextoCurto","InternalName":"CAgFTipoQtdeVcto","InputPicture":"@!","Type":"xs:string"},{"Name":"CAgCtfID","Caption":"Conta Financeira","default":"0","SuperType":"CtfID","SubtypeGroup":"ContratoAgendaPag_ContaFinanceira","IsKey":"false","ReadOnly":"false","AttributeType":"int","Description":"Conta Financeira","Length":"9","Decimals":"0","Signed":"false","AllowDBNulls":"true","Domain":"ID","InternalName":"CAgCtfID","InputPicture":"ZZZZZZZZ9","Type":"xs:int"},{"Name":"CAgCtfDescricao","Caption":"Conta Financeira","default":"","IsKey":"false","ReadOnly":"true","AttributeType":"svchar","Description":"Conta Financeira","Length":"100","Decimals":"0","Signed":"false","AllowDBNulls":"true","Domain":"DescricaoSuggest","InternalName":"CAgCtfDescricao","InputPicture":"@!","Type":"xs:string"},{"Name":"CAgSituacao","Caption":"Situação","default":"","IsKey":"false","ReadOnly":"false","AttributeType":"char","Description":"Situação","Length":"1","Decimals":"0","Signed":"false","AllowDBNulls":"false","Domain":"Situacao","InternalName":"CAgSituacao","InputPicture":"","Type":"xs:string"},{"Name":"CAgInsLogCadastro","Caption":"Inclusão","default":"","IsKey":"false","ReadOnly":"false","AttributeType":"svchar","Description":"Inclusão","Length":"300","Decimals":"0","Signed":"false","AllowDBNulls":"false","Domain":"LogCadastro","InternalName":"CAgInsLogCadastro","InputPicture":"@!","Type":"xs:string"},{"Name":"CAgUpdLogCadastro","Caption":"Alteração","default":"","IsKey":"false","ReadOnly":"false","AttributeType":"svchar","Description":"Alteração","Length":"300","Decimals":"0","Signed":"false","AllowDBNulls":"false","Domain":"LogCadastro","InternalName":"CAgUpdLogCadastro","InputPicture":"@!","Type":"xs:string"},{"Name":"CAgFInsLogCadastro","Caption":"Inclusão","default":"","IsKey":"false","ReadOnly":"true","AttributeType":"svchar","Description":"Inclusão","Length":"300","Decimals":"0","Signed":"false","AllowDBNulls":"true","Domain":"LogCadastro","InternalName":"CAgFInsLogCadastro","InputPicture":"@!","Type":"xs:string"},{"Name":"CAgFUpdLogCadastro","Caption":"Alteração","default":"","IsKey":"false","ReadOnly":"true","AttributeType":"svchar","Description":"Alteração","Length":"300","Decimals":"0","Signed":"false","AllowDBNulls":"true","Domain":"LogCadastro","InternalName":"CAgFUpdLogCadastro","InputPicture":"@!","Type":"xs:string"},{"Name":"CAgFParcelas","Caption":"Parcelas","default":"0","IsKey":"false","ReadOnly":"true","AttributeType":"int","Description":"Parcelas","Length":"6","Decimals":"0","Signed":"false","AllowDBNulls":"true","Domain":"Qtde","InternalName":"CAgFParcelas","InputPicture":"ZZZZZ9","Type":"xs:int"},{"Name":"CAgFTotalParcelado","Caption":"Total Parcelado","default":"0","IsKey":"false","ReadOnly":"true","AttributeType":"int","Description":"Total Parcelado","Length":"14","Decimals":"2","Signed":"true","AllowDBNulls":"true","Domain":"Valor","InternalName":"CAgFTotalParcelado","InputPicture":"ZZZ,ZZZ,ZZZ,ZZ9.99","Type":"xs:decimal"},{"Name":"CAgFDescricaoLink","Caption":"Descrição","default":"","IsKey":"false","ReadOnly":"true","AttributeType":"svchar","Description":"Descrição","Length":"100","Decimals":"0","Signed":"false","AllowDBNulls":"true","Domain":"Descricao","InternalName":"CAgFDescricaoLink","InputPicture":"@!","Type":"xs:string"},{"Name":"CAgFDescricaoID","Caption":"Agenda Pag.","default":"","IsKey":"false","ReadOnly":"true","AttributeType":"svchar","Description":"Agenda Pag.","Length":"100","Decimals":"0","Signed":"false","AllowDBNulls":"true","Domain":"Descricao","InternalName":"CAgFDescricaoID","InputPicture":"@!","Type":"xs:string"},{"Name":"CAgSerialPrcNro","Caption":"Última Parcela","default":"0","IsKey":"false","ReadOnly":"false","AttributeType":"int","Description":"Última Parcela","Length":"3","Decimals":"0","Signed":"false","AllowDBNulls":"false","Domain":"Parcela","InternalName":"CAgSerialPrcNro","InputPicture":"ZZ9","Type":"xs:int"},{"Name":"CAgCategoriaContabil","Caption":"Contábil","default":"","IsKey":"false","ReadOnly":"false","AttributeType":"char","Description":"Contábil","Length":"1","Decimals":"0","Signed":"false","AllowDBNulls":"false","Domain":"CategoriaContabil","InternalName":"CAgCategoriaContabil","InputPicture":"","Type":"xs:string"},{"Name":"CAgTbtIDs","Caption":"Tributos","default":"","IsKey":"false","ReadOnly":"false","AttributeType":"svchar","Description":"Tributos","Length":"1000","Decimals":"0","Signed":"false","AllowDBNulls":"false","Domain":"Lista","InternalName":"CAgTbtIDs","InputPicture":"@!","Type":"xs:string"},{"Name":"CAgSdtUltLancamento","Caption":"Histórico do Último Lançamento","default":"","IsKey":"false","ReadOnly":"false","AttributeType":"vchar","Description":"Histórico do Último Lançamento","Length":"2097152","Decimals":"0","Signed":"false","AllowDBNulls":"false","Domain":"TextoSDT","InternalName":"CAgSdtUltLancamento","InputPicture":"","Type":"xs:string"}]},{"Name":"Contratoagendapagparcela","ParentLevel":"Contratoagendapag","LevelName":"Parcela","Description":"Parcela","Attributes":[{"Name":"CtrID","Caption":"Nº Contrato","default":"0","IsKey":"true","ReadOnly":"true","AttributeType":"int","Description":"Nº Contrato","Length":"9","Decimals":"0","Signed":"false","AllowDBNulls":"false","Domain":"ID","InternalName":"CtrID","InputPicture":"ZZZZZZZZ9","Type":"xs:int"},{"Name":"CAgID","Caption":"Item","default":"0","IsKey":"true","ReadOnly":"true","AttributeType":"int","Description":"Item","Length":"9","Decimals":"0","Signed":"false","AllowDBNulls":"false","Domain":"ID","InternalName":"CAgID","InputPicture":"ZZZZZZZZ9","Type":"xs:int"},{"Name":"CAgPrcNro","Caption":"Parcela","default":"0","IsKey":"true","ReadOnly":"false","AttributeType":"int","Description":"Parcela","Length":"3","Decimals":"0","Signed":"false","AllowDBNulls":"false","Domain":"Parcela","InternalName":"CAgPrcNro","InputPicture":"ZZ9","Type":"xs:int"},{"Name":"CAgPrcData","Caption":"Vencimento","default":"","IsKey":"false","ReadOnly":"false","AttributeType":"date","Description":"Vencimento","Length":"8","Decimals":"0","Signed":"false","AllowDBNulls":"false","Domain":"Data","InternalName":"CAgPrcData","DescriptionAtt":"true","InputPicture":"99/99/9999","Type":"xs:string"},{"Name":"CAgPrcValor","Caption":"Valor","default":"0","IsKey":"false","ReadOnly":"false","AttributeType":"int","Description":"Valor","Length":"14","Decimals":"2","Signed":"true","AllowDBNulls":"false","Domain":"Valor","InternalName":"CAgPrcValor","InputPicture":"ZZZ,ZZZ,ZZZ,ZZ9.99","Type":"xs:decimal"}]}]},"Relations":{"ManyToOne":{"references":[{"Name":"ContratoAgendaPagCtrIDCAgID","BusinessComponent":"ContratoAgendaPag","LevelName":"ContratoAgendaPag","Description":"Agenda de Pagamento","ForeignKey":{"KeyAttributes":[{"Name":"CtrID","Type":"int"},{"Name":"CAgID","Type":"int"}]},"InferredAttributes":{"Attributes":[{"Name":"CAgFParcelas","Type":"int"},{"Name":"CAgFTotalParcelado","Type":"decimal"}]}},{"Name":"ContaFinanceiraCAgCtfID","BusinessComponent":"ContaFinanceira","LevelName":"ContratoAgendaPag","Description":"Conta Financeira","ForeignKey":{"KeyAttributes":[{"Name":"CAgCtfID","Type":"int","AtributeSuperType":"CtfID"}]},"InferredAttributes":{"Attributes":[{"Name":"CAgCtfDescricao","Type":"svchar","AtributeSuperType":"CtfDescricao"}]}},{"Name":"ContratoCtrID","BusinessComponent":"Contrato","LevelName":"ContratoAgendaPag","Description":"Contrato","ForeignKey":{"KeyAttributes":[{"Name":"CtrID","Type":"int"}]},"InferredAttributes":{"Attributes":[{"Name":"CtrQtdePrazo","Type":"decimal"},{"Name":"CtrVigenciaIni","Type":"date"},{"Name":"CtrFDescricaoID","Type":"svchar"}]}}]}}}
}
