{

"GxObject":{"ObjectType":"BusinessComponent","Name":"Informacao","idConnectivitySupport":"idInherit","Structure":{"Levels":[{"Name":"Informacao","ParentLevel":"","LevelName":"Informacao","Description":"Informação","Attributes":[{"Name":"InfID","Caption":"Nº Inform.","default":"0","AutoNumber":"true","IsKey":"true","ReadOnly":"false","AttributeType":"int","Description":"Nº Inform.","Length":"9","Decimals":"0","Signed":"false","AllowDBNulls":"false","Domain":"ID","InternalName":"InfID","InputPicture":"ZZZZZZZZ9","Type":"xs:int"},{"Name":"InfDescricao","Caption":"Descrição","default":"","IsKey":"false","ReadOnly":"false","AttributeType":"svchar","Description":"Descrição","Length":"100","Decimals":"0","Signed":"false","AllowDBNulls":"false","Domain":"Descricao","InternalName":"InfDescricao","DescriptionAtt":"true","InputPicture":"@!","Type":"xs:string"},{"Name":"InfFchID","Caption":"Ficha","default":"0","SuperType":"FchID","SubtypeGroup":"Informacao_Ficha","IsKey":"false","ReadOnly":"false","AttributeType":"int","Description":"Ficha","Length":"9","Decimals":"0","Signed":"false","AllowDBNulls":"false","Domain":"ID","InternalName":"InfFchID","InputPicture":"ZZZZZZZZ9","Type":"xs:int"},{"Name":"InfFchDescricao","Caption":"Ficha","default":"","IsKey":"false","ReadOnly":"true","AttributeType":"svchar","Description":"Ficha","Length":"100","Decimals":"0","Signed":"false","AllowDBNulls":"true","Domain":"DescricaoSuggest","InternalName":"InfFchDescricao","InputPicture":"@!","Type":"xs:string"},{"Name":"InfData","Caption":"Data","default":"","IsKey":"false","ReadOnly":"false","AttributeType":"date","Description":"Data","Length":"8","Decimals":"0","Signed":"false","AllowDBNulls":"false","Domain":"Data","InternalName":"InfData","InputPicture":"99/99/9999","Type":"xs:string"},{"Name":"InfSituacao","Caption":"Situação","default":"","IsKey":"false","ReadOnly":"false","AttributeType":"char","Description":"Situação","Length":"1","Decimals":"0","Signed":"false","AllowDBNulls":"false","Domain":"Situacao","InternalName":"InfSituacao","InputPicture":"","Type":"xs:string"},{"Name":"InfInsLogCadastro","Caption":"Inclusão","default":"","IsKey":"false","ReadOnly":"false","AttributeType":"svchar","Description":"Inclusão","Length":"300","Decimals":"0","Signed":"false","AllowDBNulls":"false","Domain":"LogCadastro","InternalName":"InfInsLogCadastro","InputPicture":"@!","Type":"xs:string"},{"Name":"InfUpdLogCadastro","Caption":"Alteração","default":"","IsKey":"false","ReadOnly":"false","AttributeType":"svchar","Description":"Alteração","Length":"300","Decimals":"0","Signed":"false","AllowDBNulls":"false","Domain":"LogCadastro","InternalName":"InfUpdLogCadastro","InputPicture":"@!","Type":"xs:string"},{"Name":"InfFInsLogCadastro","Caption":"Inclusão","default":"","IsKey":"false","ReadOnly":"true","AttributeType":"svchar","Description":"Inclusão","Length":"300","Decimals":"0","Signed":"false","AllowDBNulls":"true","Domain":"LogCadastro","InternalName":"InfFInsLogCadastro","InputPicture":"@!","Type":"xs:string"},{"Name":"InfFUpdLogCadastro","Caption":"Alteração","default":"","IsKey":"false","ReadOnly":"true","AttributeType":"svchar","Description":"Alteração","Length":"300","Decimals":"0","Signed":"false","AllowDBNulls":"true","Domain":"LogCadastro","InternalName":"InfFUpdLogCadastro","InputPicture":"@!","Type":"xs:string"}]}]},"Relations":{"ManyToOne":{"references":[]}}}
}
